--------------------------------------------------------------------------
Primary job  terminated normally, but 1 process returned
a non-zero exit code. Per user-direction, the job has been aborted.
--------------------------------------------------------------------------
--------------------------------------------------------------------------
WARNING: Open MPI failed to TCP connect to a peer MPI process.  This
should not happen.

Your Open MPI job may now fail.

  Local host: instance-27
  PID:        10263
  Message:    connect() to 10.128.0.94:1026 failed
  Error:      Operation now in progress (115)
--------------------------------------------------------------------------
[instance-24:11658] PMIX ERROR: UNREACHABLE in file ../../../src/server/pmix_server.c at line 2079
[instance-24:11658] PMIX ERROR: UNREACHABLE in file ../../../src/server/pmix_server.c at line 2079
[instance-27][[38322,1],12][btl_tcp.c:559:mca_btl_tcp_recv_blocking] recv(19) failed: Connection reset by peer (104)
--------------------------------------------------------------------------
mpirun noticed that process rank 15 with PID 10266 on node 10.128.0.95 exited on signal 9 (Killed).
--------------------------------------------------------------------------
[instance-24:11658] 7 more processes have sent help message help-mpi-btl-tcp.txt / client connect fail
[instance-24:11658] Set MCA parameter "orte_base_help_aggregate" to 0 to see all help / error messages
[instance-26:10251] PMIX ERROR: UNREACHABLE in file ../../../src/server/pmix_server.c at line 2079
